{
    "13": {
        "deviceChanged": {
            "id": "heat1",
            "newState": true,
            "precState": false
        },
        "meta": {
            "date": "2021-22-11 15:00:00",
            "houseId": "53",
            "userChange": 80
        },
        "system": {
            "0": {
                "color": "#986456",
                "intensity": 22,
                "state": true
            },
            "1": {
                "color": "#986456",
                "intensity": 84,
                "state": false
            },
            "2": {
                "color": "#986456",
                "intensity": 22,
                "state": true
            },
            "3": {
                "color": "#986456",
                "intensity": 77,
                "state": false
            },
            "4": {
                "color": "#677633",
                "intensity": 91,
                "state": false
            },
            "5": {
                "color": "#098753",
                "intensity": 28,
                "state": true
            },
            "6": {
                "color": "#986456",
                "intensity": 83,
                "state": false
            },
            "7": {
                "color": "#986456",
                "intensity": 82,
                "state": true
            }
        }
    },
    "2": {
        "deviceChanged": {
            "id": "heat1",
            "newState": false,
            "precState": true
        },
        "meta": {
            "date": "2021-22-11 19:00:00",
            "houseId": "46",
            "userChange": 33
        },
        "system": {
            "0": {
                "color": "#087676",
                "intensity": 91,
                "state": true
            },
            "1": {
                "color": "#986456",
                "intensity": 28,
                "state": true
            },
            "2": {
                "color": "#098753",
                "intensity": 45,
                "state": false
            },
            "3": {
                "color": "#677633",
                "intensity": 80,
                "state": true
            },
            "4": {
                "color": "#986456",
                "intensity": 61,
                "state": false
            },
            "5": {
                "color": "#087676",
                "intensity": 69,
                "state": true
            },
            "6": {
                "color": "#4587653",
                "intensity": 99,
                "state": false
            },
            "7": {
                "color": "#087676",
                "intensity": 77,
                "state": false
            }
        }
    },
    "30": {
        "deviceChanged": {
            "id": "heat4",
            "newState": true,
            "precState": false
        },
        "meta": {
            "date": "2021-22-11 17:00:00",
            "houseId": "54",
            "userChange": 68
        },
        "system": {
            "0": {
                "color": "#986456",
                "intensity": 3,
                "state": true
            },
            "1": {
                "color": "#986456",
                "intensity": 91,
                "state": false
            },
            "2": {
                "color": "#098753",
                "intensity": 69,
                "state": false
            },
            "3": {
                "color": "#087676",
                "intensity": 34,
                "state": true
            },
            "4": {
                "color": "#4587653",
                "intensity": 91,
                "state": true
            },
            "5": {
                "color": "#4587653",
                "intensity": 39,
                "state": false
            },
            "6": {
                "color": "#098753",
                "intensity": 84,
                "state": true
            },
            "7": {
                "color": "#098753",
                "intensity": 92,
                "state": true
            }
        }
    },
    "32": {
        "deviceChanged": {
            "id": "heat3",
            "newState": false,
            "precState": true
        },
        "meta": {
            "date": "2021-22-11 18:00:00",
            "houseId": "15",
            "userChange": 43
        },
        "system": {
            "0": {
                "color": "#4587653",
                "intensity": 60,
                "state": false
            },
            "1": {
                "color": "#677633",
                "intensity": 84,
                "state": false
            },
            "2": {
                "color": "#4587653",
                "intensity": 22,
                "state": false
            },
            "3": {
                "color": "#087676",
                "intensity": 80,
                "state": false
            },
            "4": {
                "color": "#4587653",
                "intensity": 3,
                "state": true
            },
            "5": {
                "color": "#4587653",
                "intensity": 22,
                "state": true
            },
            "6": {
                "color": "#4587653",
                "intensity": 84,
                "state": false
            },
            "7": {
                "color": "#677633",
                "intensity": 63,
                "state": false
            }
        }
    },
    "36": {
        "deviceChanged": {
            "id": "heat2",
            "newState": true,
            "precState": false
        },
        "meta": {
            "date": "2021-22-11 15:00:00",
            "houseId": "15",
            "userChange": 33
        },
        "system": {
            "0": {
                "color": "#087676",
                "intensity": 91,
                "state": true
            },
            "1": {
                "color": "#986456",
                "intensity": 34,
                "state": true
            },
            "2": {
                "color": "#677633",
                "intensity": 3,
                "state": true
            },
            "3": {
                "color": "#087676",
                "intensity": 28,
                "state": false
            },
            "4": {
                "color": "#098753",
                "intensity": 30,
                "state": true
            },
            "5": {
                "color": "#4587653",
                "intensity": 77,
                "state": false
            },
            "6": {
                "color": "#4587653",
                "intensity": 22,
                "state": false
            },
            "7": {
                "color": "#677633",
                "intensity": 29,
                "state": true
            }
        }
    },
    "37": {
        "deviceChanged": {
            "id": "heat2",
            "newState": false,
            "precState": true
        },
        "meta": {
            "date": "2021-22-11 18:00:00",
            "houseId": "13",
            "userChange": 97
        },
        "system": {
            "0": {
                "color": "#986456",
                "intensity": 91,
                "state": true
            },
            "1": {
                "color": "#087676",
                "intensity": 77,
                "state": false
            },
            "2": {
                "color": "#677633",
                "intensity": 23,
                "state": true
            },
            "3": {
                "color": "#098753",
                "intensity": 60,
                "state": false
            },
            "4": {
                "color": "#098753",
                "intensity": 60,
                "state": false
            },
            "5": {
                "color": "#098753",
                "intensity": 80,
                "state": true
            },
            "6": {
                "color": "#4587653",
                "intensity": 60,
                "state": true
            },
            "7": {
                "color": "#087676",
                "intensity": 61,
                "state": true
            }
        }
    },
    "44": {
        "deviceChanged": {
            "id": "heat4",
            "newState": true,
            "precState": false
        },
        "meta": {
            "date": "2021-22-11 19:00:00",
            "houseId": "90",
            "userChange": 33
        },
        "system": {
            "0": {
                "color": "#986456",
                "intensity": 99,
                "state": true
            },
            "1": {
                "color": "#4587653",
                "intensity": 22,
                "state": true
            },
            "2": {
                "color": "#677633",
                "intensity": 83,
                "state": true
            },
            "3": {
                "color": "#4587653",
                "intensity": 99,
                "state": true
            },
            "4": {
                "color": "#4587653",
                "intensity": 22,
                "state": true
            },
            "5": {
                "color": "#986456",
                "intensity": 83,
                "state": false
            },
            "6": {
                "color": "#677633",
                "intensity": 3,
                "state": true
            },
            "7": {
                "color": "#986456",
                "intensity": 83,
                "state": false
            }
        }
    },
    "46": {
        "deviceChanged": {
            "id": "heat4",
            "newState": true,
            "precState": false
        },
        "meta": {
            "date": "2021-22-11 16:00:00",
            "houseId": "80",
            "userChange": 3
        },
        "system": {
            "0": {
                "color": "#098753",
                "intensity": 99,
                "state": false
            },
            "1": {
                "color": "#087676",
                "intensity": 60,
                "state": false
            },
            "2": {
                "color": "#4587653",
                "intensity": 30,
                "state": false
            },
            "3": {
                "color": "#986456",
                "intensity": 29,
                "state": true
            },
            "4": {
                "color": "#087676",
                "intensity": 91,
                "state": false
            },
            "5": {
                "color": "#098753",
                "intensity": 45,
                "state": false
            },
            "6": {
                "color": "#098753",
                "intensity": 82,
                "state": false
            },
            "7": {
                "color": "#098753",
                "intensity": 91,
                "state": false
            }
        }
    },
    "55": {
        "deviceChanged": {
            "id": "light1",
            "newState": false,
            "precState": true
        },
        "meta": {
            "date": "2021-22-11 15:00:00",
            "houseId": "90",
            "userChange": 77
        },
        "system": {
            "0": {
                "color": "#986456",
                "intensity": 84,
                "state": true
            },
            "1": {
                "color": "#986456",
                "intensity": 39,
                "state": true
            },
            "2": {
                "color": "#677633",
                "intensity": 91,
                "state": false
            },
            "3": {
                "color": "#986456",
                "intensity": 82,
                "state": false
            },
            "4": {
                "color": "#4587653",
                "intensity": 30,
                "state": true
            },
            "5": {
                "color": "#986456",
                "intensity": 83,
                "state": true
            },
            "6": {
                "color": "#4587653",
                "intensity": 63,
                "state": false
            },
            "7": {
                "color": "#087676",
                "intensity": 39,
                "state": false
            }
        }
    },
    "61": {
        "deviceChanged": {
            "id": "heat2",
            "newState": false,
            "precState": true
        },
        "meta": {
            "date": "2021-22-11 17:00:00",
            "houseId": "84",
            "userChange": 70
        },
        "system": {
            "0": {
                "color": "#677633",
                "intensity": 83,
                "state": true
            },
            "1": {
                "color": "#677633",
                "intensity": 23,
                "state": false
            },
            "2": {
                "color": "#986456",
                "intensity": 28,
                "state": false
            },
            "3": {
                "color": "#087676",
                "intensity": 45,
                "state": true
            },
            "4": {
                "color": "#986456",
                "intensity": 34,
                "state": true
            },
            "5": {
                "color": "#4587653",
                "intensity": 82,
                "state": true
            },
            "6": {
                "color": "#087676",
                "intensity": 84,
                "state": true
            },
            "7": {
                "color": "#4587653",
                "intensity": 84,
                "state": true
            }
        }
    },
    "7": {
        "deviceChanged": {
            "id": "heat2",
            "newState": true,
            "precState": false
        },
        "meta": {
            "date": "2021-22-11 19:00:00",
            "houseId": "91",
            "userChange": 33
        },
        "system": {
            "0": {
                "color": "#4587653",
                "intensity": 30,
                "state": false
            },
            "1": {
                "color": "#986456",
                "intensity": 77,
                "state": false
            },
            "2": {
                "color": "#986456",
                "intensity": 92,
                "state": true
            },
            "3": {
                "color": "#986456",
                "intensity": 39,
                "state": false
            },
            "4": {
                "color": "#098753",
                "intensity": 91,
                "state": false
            },
            "5": {
                "color": "#677633",
                "intensity": 69,
                "state": false
            },
            "6": {
                "color": "#986456",
                "intensity": 69,
                "state": true
            },
            "7": {
                "color": "#677633",
                "intensity": 84,
                "state": true
            }
        }
    },
    "71": {
        "deviceChanged": {
            "id": "heat2",
            "newState": true,
            "precState": false
        },
        "meta": {
            "date": "2021-22-11 17:00:00",
            "houseId": "90",
            "userChange": 43
        },
        "system": {
            "0": {
                "color": "#677633",
                "intensity": 45,
                "state": true
            },
            "1": {
                "color": "#098753",
                "intensity": 84,
                "state": false
            },
            "2": {
                "color": "#677633",
                "intensity": 23,
                "state": false
            },
            "3": {
                "color": "#098753",
                "intensity": 92,
                "state": false
            },
            "4": {
                "color": "#986456",
                "intensity": 69,
                "state": true
            },
            "5": {
                "color": "#098753",
                "intensity": 92,
                "state": false
            },
            "6": {
                "color": "#986456",
                "intensity": 22,
                "state": false
            },
            "7": {
                "color": "#4587653",
                "intensity": 80,
                "state": false
            }
        }
    },
    "81": {
        "deviceChanged": {
            "id": "light1",
            "newState": true,
            "precState": false
        },
        "meta": {
            "date": "2021-22-11 14:00:00",
            "houseId": "84",
            "userChange": 51
        },
        "system": {
            "0": {
                "color": "#087676",
                "intensity": 61,
                "state": false
            },
            "1": {
                "color": "#087676",
                "intensity": 99,
                "state": false
            },
            "2": {
                "color": "#087676",
                "intensity": 3,
                "state": false
            },
            "3": {
                "color": "#4587653",
                "intensity": 61,
                "state": true
            },
            "4": {
                "color": "#986456",
                "intensity": 30,
                "state": true
            },
            "5": {
                "color": "#986456",
                "intensity": 84,
                "state": false
            },
            "6": {
                "color": "#098753",
                "intensity": 60,
                "state": false
            },
            "7": {
                "color": "#098753",
                "intensity": 83,
                "state": false
            }
        }
    },
    "83": {
        "deviceChanged": {
            "id": "light2",
            "newState": true,
            "precState": false
        },
        "meta": {
            "date": "2021-22-11 18:00:00",
            "houseId": "80",
            "userChange": 34
        },
        "system": {
            "0": {
                "color": "#986456",
                "intensity": 22,
                "state": true
            },
            "1": {
                "color": "#4587653",
                "intensity": 59,
                "state": false
            },
            "2": {
                "color": "#087676",
                "intensity": 83,
                "state": true
            },
            "3": {
                "color": "#986456",
                "intensity": 83,
                "state": true
            },
            "4": {
                "color": "#4587653",
                "intensity": 84,
                "state": true
            },
            "5": {
                "color": "#087676",
                "intensity": 34,
                "state": true
            },
            "6": {
                "color": "#087676",
                "intensity": 28,
                "state": true
            },
            "7": {
                "color": "#986456",
                "intensity": 84,
                "state": false
            }
        }
    },
    "9": {
        "deviceChanged": {
            "id": "heat3",
            "newState": true,
            "precState": false
        },
        "meta": {
            "date": "2021-22-11 18:00:00",
            "houseId": "24",
            "userChange": 90
        },
        "system": {
            "0": {
                "color": "#4587653",
                "intensity": 69,
                "state": true
            },
            "1": {
                "color": "#4587653",
                "intensity": 69,
                "state": false
            },
            "2": {
                "color": "#986456",
                "intensity": 100,
                "state": false
            },
            "3": {
                "color": "#986456",
                "intensity": 84,
                "state": true
            },
            "4": {
                "color": "#4587653",
                "intensity": 22,
                "state": true
            },
            "5": {
                "color": "#677633",
                "intensity": 99,
                "state": true
            },
            "6": {
                "color": "#986456",
                "intensity": 83,
                "state": true
            },
            "7": {
                "color": "#677633",
                "intensity": 83,
                "state": false
            }
        }
    },
    "93": {
        "deviceChanged": {
            "id": "heat1",
            "newState": false,
            "precState": true
        },
        "meta": {
            "date": "2021-22-11 15:00:00",
            "houseId": "73",
            "userChange": 68
        },
        "system": {
            "0": {
                "color": "#677633",
                "intensity": 3,
                "state": false
            },
            "1": {
                "color": "#677633",
                "intensity": 28,
                "state": false
            },
            "2": {
                "color": "#4587653",
                "intensity": 84,
                "state": false
            },
            "3": {
                "color": "#986456",
                "intensity": 83,
                "state": true
            },
            "4": {
                "color": "#986456",
                "intensity": 28,
                "state": false
            },
            "5": {
                "color": "#986456",
                "intensity": 3,
                "state": true
            },
            "6": {
                "color": "#087676",
                "intensity": 30,
                "state": true
            },
            "7": {
                "color": "#4587653",
                "intensity": 92,
                "state": true
            }
        }
    },
    "95": {
        "deviceChanged": {
            "id": "light1",
            "newState": true,
            "precState": false
        },
        "meta": {
            "date": "2021-22-11 16:00:00",
            "houseId": "54",
            "userChange": 51
        },
        "system": {
            "0": {
                "color": "#098753",
                "intensity": 61,
                "state": true
            },
            "1": {
                "color": "#986456",
                "intensity": 28,
                "state": false
            },
            "2": {
                "color": "#986456",
                "intensity": 84,
                "state": false
            },
            "3": {
                "color": "#4587653",
                "intensity": 83,
                "state": true
            },
            "4": {
                "color": "#087676",
                "intensity": 99,
                "state": false
            },
            "5": {
                "color": "#4587653",
                "intensity": 83,
                "state": false
            },
            "6": {
                "color": "#986456",
                "intensity": 60,
                "state": false
            },
            "7": {
                "color": "#087676",
                "intensity": 84,
                "state": true
            }
        }
    },
    "96": {
        "deviceChanged": {
            "id": "heat4",
            "newState": false,
            "precState": true
        },
        "meta": {
            "date": "2021-22-11 14:00:00",
            "houseId": "15",
            "userChange": 76
        },
        "system": {
            "0": {
                "color": "#986456",
                "intensity": 83,
                "state": true
            },
            "1": {
                "color": "#087676",
                "intensity": 39,
                "state": true
            },
            "2": {
                "color": "#087676",
                "intensity": 82,
                "state": false
            },
            "3": {
                "color": "#677633",
                "intensity": 84,
                "state": true
            },
            "4": {
                "color": "#098753",
                "intensity": 83,
                "state": true
            },
            "5": {
                "color": "#098753",
                "intensity": 63,
                "state": true
            },
            "6": {
                "color": "#098753",
                "intensity": 23,
                "state": false
            },
            "7": {
                "color": "#098753",
                "intensity": 60,
                "state": true
            }
        }
    },
    "98": {
        "deviceChanged": {
            "id": "heat1",
            "newState": false,
            "precState": true
        },
        "meta": {
            "date": "2021-22-11 16:00:00",
            "houseId": "67",
            "userChange": 30
        },
        "system": {
            "0": {
                "color": "#4587653",
                "intensity": 91,
                "state": true
            },
            "1": {
                "color": "#087676",
                "intensity": 83,
                "state": false
            },
            "2": {
                "color": "#098753",
                "intensity": 30,
                "state": false
            },
            "3": {
                "color": "#986456",
                "intensity": 28,
                "state": false
            },
            "4": {
                "color": "#677633",
                "intensity": 99,
                "state": true
            },
            "5": {
                "color": "#098753",
                "intensity": 91,
                "state": true
            },
            "6": {
                "color": "#087676",
                "intensity": 29,
                "state": true
            },
            "7": {
                "color": "#677633",
                "intensity": 83,
                "state": false
            }
        }
    },
    "99": {
        "deviceChanged": {
            "id": "heat1",
            "newState": true,
            "precState": false
        },
        "meta": {
            "date": "2021-22-11 17:00:00",
            "houseId": "100",
            "userChange": 20
        },
        "system": {
            "0": {
                "color": "#098753",
                "intensity": 84,
                "state": true
            },
            "1": {
                "color": "#4587653",
                "intensity": 23,
                "state": true
            },
            "2": {
                "color": "#677633",
                "intensity": 39,
                "state": true
            },
            "3": {
                "color": "#087676",
                "intensity": 22,
                "state": true
            },
            "4": {
                "color": "#087676",
                "intensity": 77,
                "state": false
            },
            "5": {
                "color": "#4587653",
                "intensity": 83,
                "state": true
            },
            "6": {
                "color": "#986456",
                "intensity": 99,
                "state": true
            },
            "7": {
                "color": "#4587653",
                "intensity": 22,
                "state": false
            }
        }
    }
}